[gd_scene load_steps=6 format=2]

[ext_resource path="res://Scripts/Captchaloggable.gd" type="Script" id=1]
[ext_resource path="res://Textures/captcha_cake.png" type="Texture" id=2]
[ext_resource path="res://Textures/cake.png" type="Texture" id=3]
[ext_resource path="res://Scripts/Billboard.gd" type="Script" id=4]

[sub_resource type="SphereShape" id=1]
radius = 0.7

[node name="Cake" type="Spatial"]
script = ExtResource( 1 )
captcha_texture = ExtResource( 2 )

[node name="Area" type="Area" parent="."]
editor/display_folded = true
input_ray_pickable = true

[node name="CollisionShape" type="CollisionShape" parent="Area"]
shape = SubResource( 1 )

[node name="Sprite3D" type="Sprite3D" parent="."]
texture = ExtResource( 3 )
script = ExtResource( 4 )

[connection signal="input_event" from="Area" to="." method="_on_Area_input_event"]
