[gd_scene load_steps=4 format=2]

[ext_resource path="res://Textures/white_bordered_top_left.png" type="Texture" id=1]

[sub_resource type="SpatialMaterial" id=1]
flags_unshaded = true
albedo_texture = ExtResource( 1 )

[sub_resource type="QuadMesh" id=2]
material = SubResource( 1 )

[node name="Block" type="Spatial"]

[node name="Right" type="MeshInstance" parent="."]
transform = Transform( 1, 0, 0, 0, 1, 0, 0, 0, 1, 0, 0, 0.5 )
mesh = SubResource( 2 )
material/0 = null

[node name="Left" type="MeshInstance" parent="."]
transform = Transform( -4.37114e-008, 0, -1, 0, 1, 0, 1, 0, -4.37114e-008, -0.5, 0, 0 )
mesh = SubResource( 2 )
material/0 = null

[node name="Top" type="MeshInstance" parent="."]
transform = Transform( 1, 0, 0, 0, -4.37114e-008, 1, 0, -1, -4.37114e-008, 0, 0.5, 0 )
mesh = SubResource( 2 )
material/0 = null

